0000.001 (0) Opened log file at time: Wed, 07 Feb 2018 05:30:13 +0000 on http://sparkdemand.io
0000.006 (0) UpdraftPlus WordPress backup plugin (https://updraftplus.com): 1.14.3 WP: 4.9.4 PHP: 7.0.27 (cli, Linux us87.siteground.us 3.12.18-clouder0 #85 SMP Mon Apr 3 10:28:14 EEST 2017 x86_64) MySQL: 5.6.36 WPLANG: en_US Server:  safe_mode: 0 max_execution_time: 900 memory_limit: 768M (used: 89.8M | 92M) multisite: N openssl: OpenSSL 1.0.2k  26 Jan 2017 mcrypt: Y LANG:  ZipArchive::addFile: Y
0000.020 (0) Free space on disk containing Updraft's temporary directory: 786750.7 MB
0000.025 (0) Tasks: Backup files: 1 (schedule: daily) Backup DB:  (schedule: weekly)
0000.028 (0) Processed schedules. Tasks now: Backup files: 1 Backup DB: 
0000.041 (0) Requesting semaphore lock (f) (apparently via scheduler: last_scheduled_action_called_at=1517895013, seconds_ago=86400)
0000.044 (0) Set semaphore last lock (f) time to 2018-02-07 05:30:13
0000.047 (0) Semaphore lock (f) complete
0000.052 (0) Backup run: resumption=0, nonce=c67ca600817d, begun at=1517981413 (0s ago), job type=backup
0000.056 (0) Scheduling a resumption (1) after 300 seconds (1517981713) in case this run gets aborted
0000.070 (0) Checking if we have a zip executable available
0000.073 (0) Testing: /usr/bin/zip
0000.082 (0) Output: zip warning: binziptest/test.zip not found or empty
0000.086 (0) Output: adding: binziptest/subdir1/	(in=0) (out=0) (stored 0%)
0000.088 (0) Output: adding: binziptest/subdir1/subdir2/	(in=0) (out=0) (stored 0%)
0000.091 (0) Output: adding: binziptest/subdir1/subdir2/test.html	(in=131) (out=107) (deflated 18%)
0000.098 (0) Output: total bytes=131, compressed=107 -> 18% savings
0000.110 (0) Output: adding: binziptest/subdir1/subdir2/test2.html	(in=138) (out=113) (deflated 18%)
0000.115 (0) Output: total bytes=269, compressed=220 -> 18% savings
0000.125 (0) Working binary zip found: /usr/bin/zip
0000.130 (0) Zip engine: found/will use a binary zip: /usr/bin/zip
0000.132 (0) Creation of backups of directories: beginning
0000.137 (0) Beginning creation of dump of plugins (split every: 400 MB)
0000.675 (0) Total entities for the zip file: 2539 directories, 14917 files (0 skipped as non-modified), 196.4 MB
0000.681 (0) Zip: backup_2018-02-07-0030_sparkDEMAND_c67ca600817d-plugins.zip.tmp: 100 files added (on-disk size: 0 KB)
0000.685 (0) Zip: backup_2018-02-07-0030_sparkDEMAND_c67ca600817d-plugins.zip.tmp: 200 files added (on-disk size: 0 KB)
0000.690 (0) Zip: backup_2018-02-07-0030_sparkDEMAND_c67ca600817d-plugins.zip.tmp: 300 files added (on-disk size: 0 KB)
0000.694 (0) Zip: backup_2018-02-07-0030_sparkDEMAND_c67ca600817d-plugins.zip.tmp: 400 files added (on-disk size: 0 KB)
0000.698 (0) Zip: backup_2018-02-07-0030_sparkDEMAND_c67ca600817d-plugins.zip.tmp: 500 files added (on-disk size: 0 KB)
0000.701 (0) Adding batch to zip file (UpdraftPlus_BinZip): over 500 files added on this batch (10 MB, 14917 files batched, 501 (501) added so far); re-opening (prior size: 0 KB)
0001.260 (0) backup_2018-02-07-0030_sparkDEMAND_c67ca600817d-plugins.zip.tmp: size is now: 7.20 MB
0001.313 (0) Zip: backup_2018-02-07-0030_sparkDEMAND_c67ca600817d-plugins.zip.tmp: 600 files added (on-disk size: 7328.2 KB)
0001.320 (0) Zip: backup_2018-02-07-0030_sparkDEMAND_c67ca600817d-plugins.zip.tmp: 700 files added (on-disk size: 7328.2 KB)
0001.575 (0) Zip: backup_2018-02-07-0030_sparkDEMAND_c67ca600817d-plugins.zip.tmp: 800 files added (on-disk size: 7328.2 KB)
0001.588 (0) Zip: backup_2018-02-07-0030_sparkDEMAND_c67ca600817d-plugins.zip.tmp: 900 files added (on-disk size: 7328.2 KB)
0001.593 (0) Zip: backup_2018-02-07-0030_sparkDEMAND_c67ca600817d-plugins.zip.tmp: 1000 files added (on-disk size: 7328.2 KB)
0001.597 (0) Adding batch to zip file (UpdraftPlus_BinZip): over 500 files added on this batch (5.1 MB, 14917 files batched, 501 (1002) added so far); re-opening (prior size: 7328.2 KB)
0002.027 (0) backup_2018-02-07-0030_sparkDEMAND_c67ca600817d-plugins.zip.tmp: size is now: 9.40 MB
0002.036 (0) Zip: backup_2018-02-07-0030_sparkDEMAND_c67ca600817d-plugins.zip.tmp: 1100 files added (on-disk size: 9615 KB)
0002.042 (0) Zip: backup_2018-02-07-0030_sparkDEMAND_c67ca600817d-plugins.zip.tmp: 1200 files added (on-disk size: 9615 KB)
0002.049 (0) Zip: backup_2018-02-07-0030_sparkDEMAND_c67ca600817d-plugins.zip.tmp: 1300 files added (on-disk size: 9615 KB)
0002.055 (0) Zip: backup_2018-02-07-0030_sparkDEMAND_c67ca600817d-plugins.zip.tmp: 1400 files added (on-disk size: 9615 KB)
0002.061 (0) Zip: backup_2018-02-07-0030_sparkDEMAND_c67ca600817d-plugins.zip.tmp: 1500 files added (on-disk size: 9615 KB)
0002.066 (0) Adding batch to zip file (UpdraftPlus_BinZip): over 500 files added on this batch (7 MB, 14917 files batched, 501 (1503) added so far); re-opening (prior size: 9615 KB)
0002.594 (0) backup_2018-02-07-0030_sparkDEMAND_c67ca600817d-plugins.zip.tmp: size is now: 11.90 MB
0002.603 (0) Zip: backup_2018-02-07-0030_sparkDEMAND_c67ca600817d-plugins.zip.tmp: 1600 files added (on-disk size: 12230.7 KB)
0002.609 (0) Zip: backup_2018-02-07-0030_sparkDEMAND_c67ca600817d-plugins.zip.tmp: 1700 files added (on-disk size: 12230.7 KB)
0002.616 (0) Zip: backup_2018-02-07-0030_sparkDEMAND_c67ca600817d-plugins.zip.tmp: 1800 files added (on-disk size: 12230.7 KB)
0002.622 (0) Zip: backup_2018-02-07-0030_sparkDEMAND_c67ca600817d-plugins.zip.tmp: 1900 files added (on-disk size: 12230.7 KB)
0002.628 (0) Zip: backup_2018-02-07-0030_sparkDEMAND_c67ca600817d-plugins.zip.tmp: 2000 files added (on-disk size: 12230.7 KB)
0002.631 (0) Adding batch to zip file (UpdraftPlus_BinZip): over 500 files added on this batch (12.6 MB, 14917 files batched, 501 (2004) added so far); re-opening (prior size: 12230.7 KB)
0003.579 (0) backup_2018-02-07-0030_sparkDEMAND_c67ca600817d-plugins.zip.tmp: size is now: 16.50 MB
0003.586 (0) Zip: backup_2018-02-07-0030_sparkDEMAND_c67ca600817d-plugins.zip.tmp: 2100 files added (on-disk size: 16905.7 KB)
0003.590 (0) Zip: backup_2018-02-07-0030_sparkDEMAND_c67ca600817d-plugins.zip.tmp: 2200 files added (on-disk size: 16905.7 KB)
0003.595 (0) Zip: backup_2018-02-07-0030_sparkDEMAND_c67ca600817d-plugins.zip.tmp: 2300 files added (on-disk size: 16905.7 KB)
0003.599 (0) Zip: backup_2018-02-07-0030_sparkDEMAND_c67ca600817d-plugins.zip.tmp: 2400 files added (on-disk size: 16905.7 KB)
0003.603 (0) Zip: backup_2018-02-07-0030_sparkDEMAND_c67ca600817d-plugins.zip.tmp: 2500 files added (on-disk size: 16905.7 KB)
0003.606 (0) Adding batch to zip file (UpdraftPlus_BinZip): over 500 files added on this batch (4.7 MB, 14917 files batched, 501 (2505) added so far); re-opening (prior size: 16905.7 KB)
0003.925 (0) Zip: backup_2018-02-07-0030_sparkDEMAND_c67ca600817d-plugins.zip.tmp: 2600 files added (on-disk size: 18342.1 KB)
0003.930 (0) Zip: backup_2018-02-07-0030_sparkDEMAND_c67ca600817d-plugins.zip.tmp: 2700 files added (on-disk size: 18342.1 KB)
0003.934 (0) Zip: backup_2018-02-07-0030_sparkDEMAND_c67ca600817d-plugins.zip.tmp: 2800 files added (on-disk size: 18342.1 KB)
0003.938 (0) Zip: backup_2018-02-07-0030_sparkDEMAND_c67ca600817d-plugins.zip.tmp: 2900 files added (on-disk size: 18342.1 KB)
0003.941 (0) Zip: backup_2018-02-07-0030_sparkDEMAND_c67ca600817d-plugins.zip.tmp: 3000 files added (on-disk size: 18342.1 KB)
0003.944 (0) Adding batch to zip file (UpdraftPlus_BinZip): over 500 files added on this batch (2.2 MB, 14917 files batched, 501 (3006) added so far); re-opening (prior size: 18342.1 KB)
0004.203 (0) Zip: backup_2018-02-07-0030_sparkDEMAND_c67ca600817d-plugins.zip.tmp: 3100 files added (on-disk size: 19273.5 KB)
0004.208 (0) Zip: backup_2018-02-07-0030_sparkDEMAND_c67ca600817d-plugins.zip.tmp: 3200 files added (on-disk size: 19273.5 KB)
0004.212 (0) Zip: backup_2018-02-07-0030_sparkDEMAND_c67ca600817d-plugins.zip.tmp: 3300 files added (on-disk size: 19273.5 KB)
0004.216 (0) Zip: backup_2018-02-07-0030_sparkDEMAND_c67ca600817d-plugins.zip.tmp: 3400 files added (on-disk size: 19273.5 KB)
0004.220 (0) Zip: backup_2018-02-07-0030_sparkDEMAND_c67ca600817d-plugins.zip.tmp: 3500 files added (on-disk size: 19273.5 KB)
0004.223 (0) Adding batch to zip file (UpdraftPlus_BinZip): over 500 files added on this batch (6.8 MB, 14917 files batched, 501 (3507) added so far); re-opening (prior size: 19273.5 KB)
0004.859 (0) Zip: backup_2018-02-07-0030_sparkDEMAND_c67ca600817d-plugins.zip.tmp: 3600 files added (on-disk size: 21581.7 KB)
0004.863 (0) Zip: backup_2018-02-07-0030_sparkDEMAND_c67ca600817d-plugins.zip.tmp: 3700 files added (on-disk size: 21581.7 KB)
0004.867 (0) Zip: backup_2018-02-07-0030_sparkDEMAND_c67ca600817d-plugins.zip.tmp: 3800 files added (on-disk size: 21581.7 KB)
0004.871 (0) Zip: backup_2018-02-07-0030_sparkDEMAND_c67ca600817d-plugins.zip.tmp: 3900 files added (on-disk size: 21581.7 KB)
0004.874 (0) Zip: backup_2018-02-07-0030_sparkDEMAND_c67ca600817d-plugins.zip.tmp: 4000 files added (on-disk size: 21581.7 KB)
0004.877 (0) Adding batch to zip file (UpdraftPlus_BinZip): over 500 files added on this batch (6.6 MB, 14917 files batched, 501 (4008) added so far); re-opening (prior size: 21581.7 KB)
0005.449 (0) Zip: backup_2018-02-07-0030_sparkDEMAND_c67ca600817d-plugins.zip.tmp: 4100 files added (on-disk size: 24517.6 KB)
0005.453 (0) Zip: backup_2018-02-07-0030_sparkDEMAND_c67ca600817d-plugins.zip.tmp: 4200 files added (on-disk size: 24517.6 KB)
0005.457 (0) Zip: backup_2018-02-07-0030_sparkDEMAND_c67ca600817d-plugins.zip.tmp: 4300 files added (on-disk size: 24517.6 KB)
0005.461 (0) Zip: backup_2018-02-07-0030_sparkDEMAND_c67ca600817d-plugins.zip.tmp: 4400 files added (on-disk size: 24517.6 KB)
0005.465 (0) Zip: backup_2018-02-07-0030_sparkDEMAND_c67ca600817d-plugins.zip.tmp: 4500 files added (on-disk size: 24517.6 KB)
0005.468 (0) Adding batch to zip file (UpdraftPlus_BinZip): over 500 files added on this batch (6.5 MB, 14917 files batched, 501 (4509) added so far); re-opening (prior size: 24517.6 KB)
0006.001 (0) Zip: backup_2018-02-07-0030_sparkDEMAND_c67ca600817d-plugins.zip.tmp: 4600 files added (on-disk size: 27632.2 KB)
0006.008 (0) Zip: backup_2018-02-07-0030_sparkDEMAND_c67ca600817d-plugins.zip.tmp: 4700 files added (on-disk size: 27632.2 KB)
0006.014 (0) Zip: backup_2018-02-07-0030_sparkDEMAND_c67ca600817d-plugins.zip.tmp: 4800 files added (on-disk size: 27632.2 KB)
0006.020 (0) Zip: backup_2018-02-07-0030_sparkDEMAND_c67ca600817d-plugins.zip.tmp: 4900 files added (on-disk size: 27632.2 KB)
0006.026 (0) Zip: backup_2018-02-07-0030_sparkDEMAND_c67ca600817d-plugins.zip.tmp: 5000 files added (on-disk size: 27632.2 KB)
0006.030 (0) Adding batch to zip file (UpdraftPlus_BinZip): over 500 files added on this batch (3.9 MB, 14917 files batched, 501 (5010) added so far); re-opening (prior size: 27632.2 KB)
0006.393 (0) Zip: backup_2018-02-07-0030_sparkDEMAND_c67ca600817d-plugins.zip.tmp: 5100 files added (on-disk size: 29158.9 KB)
0006.398 (0) Zip: backup_2018-02-07-0030_sparkDEMAND_c67ca600817d-plugins.zip.tmp: 5200 files added (on-disk size: 29158.9 KB)
0006.402 (0) Zip: backup_2018-02-07-0030_sparkDEMAND_c67ca600817d-plugins.zip.tmp: 5300 files added (on-disk size: 29158.9 KB)
0006.406 (0) Zip: backup_2018-02-07-0030_sparkDEMAND_c67ca600817d-plugins.zip.tmp: 5400 files added (on-disk size: 29158.9 KB)
0006.411 (0) Zip: backup_2018-02-07-0030_sparkDEMAND_c67ca600817d-plugins.zip.tmp: 5500 files added (on-disk size: 29158.9 KB)
0006.414 (0) Adding batch to zip file (UpdraftPlus_BinZip): over 500 files added on this batch (3.3 MB, 14917 files batched, 501 (5511) added so far); re-opening (prior size: 29158.9 KB)
0006.910 (0) Zip: backup_2018-02-07-0030_sparkDEMAND_c67ca600817d-plugins.zip.tmp: 5600 files added (on-disk size: 30284 KB)
0006.958 (0) Zip: backup_2018-02-07-0030_sparkDEMAND_c67ca600817d-plugins.zip.tmp: 5700 files added (on-disk size: 30284 KB)
0006.963 (0) Zip: backup_2018-02-07-0030_sparkDEMAND_c67ca600817d-plugins.zip.tmp: 5800 files added (on-disk size: 30284 KB)
0006.968 (0) Zip: backup_2018-02-07-0030_sparkDEMAND_c67ca600817d-plugins.zip.tmp: 5900 files added (on-disk size: 30284 KB)
0006.973 (0) Zip: backup_2018-02-07-0030_sparkDEMAND_c67ca600817d-plugins.zip.tmp: 6000 files added (on-disk size: 30284 KB)
0006.976 (0) Adding batch to zip file (UpdraftPlus_BinZip): over 500 files added on this batch (2 MB, 14917 files batched, 501 (6012) added so far); re-opening (prior size: 30284 KB)
0007.427 (0) Zip: backup_2018-02-07-0030_sparkDEMAND_c67ca600817d-plugins.zip.tmp: 6100 files added (on-disk size: 30997.2 KB)
0007.682 (0) Zip: backup_2018-02-07-0030_sparkDEMAND_c67ca600817d-plugins.zip.tmp: 6200 files added (on-disk size: 30997.2 KB)
0012.691 (0) Adding batch to zip file (UpdraftPlus_BinZip): over 2.0 seconds have passed since the last write (1.1 MB, 189 (6201) files added so far); re-opening (prior size: 30997.2 KB)
0012.874 (0) Zip: backup_2018-02-07-0030_sparkDEMAND_c67ca600817d-plugins.zip.tmp: 6300 files added (on-disk size: 31337.9 KB)
0012.879 (0) Zip: backup_2018-02-07-0030_sparkDEMAND_c67ca600817d-plugins.zip.tmp: 6400 files added (on-disk size: 31337.9 KB)
0012.884 (0) Zip: backup_2018-02-07-0030_sparkDEMAND_c67ca600817d-plugins.zip.tmp: 6500 files added (on-disk size: 31337.9 KB)
0012.888 (0) Zip: backup_2018-02-07-0030_sparkDEMAND_c67ca600817d-plugins.zip.tmp: 6600 files added (on-disk size: 31337.9 KB)
0012.892 (0) Zip: backup_2018-02-07-0030_sparkDEMAND_c67ca600817d-plugins.zip.tmp: 6700 files added (on-disk size: 31337.9 KB)
0012.936 (0) Adding batch to zip file (UpdraftPlus_BinZip): over 500 files added on this batch (3.5 MB, 14917 files batched, 501 (6702) added so far); re-opening (prior size: 31337.9 KB)
0013.280 (0) Zip: backup_2018-02-07-0030_sparkDEMAND_c67ca600817d-plugins.zip.tmp: 6800 files added (on-disk size: 33205.4 KB)
0013.284 (0) Zip: backup_2018-02-07-0030_sparkDEMAND_c67ca600817d-plugins.zip.tmp: 6900 files added (on-disk size: 33205.4 KB)
0013.289 (0) Zip: backup_2018-02-07-0030_sparkDEMAND_c67ca600817d-plugins.zip.tmp: 7000 files added (on-disk size: 33205.4 KB)
0013.294 (0) Zip: backup_2018-02-07-0030_sparkDEMAND_c67ca600817d-plugins.zip.tmp: 7100 files added (on-disk size: 33205.4 KB)
0013.299 (0) Zip: backup_2018-02-07-0030_sparkDEMAND_c67ca600817d-plugins.zip.tmp: 7200 files added (on-disk size: 33205.4 KB)
0013.303 (0) Adding batch to zip file (UpdraftPlus_BinZip): over 500 files added on this batch (7.1 MB, 14917 files batched, 501 (7203) added so far); re-opening (prior size: 33205.4 KB)
0013.940 (0) Zip: backup_2018-02-07-0030_sparkDEMAND_c67ca600817d-plugins.zip.tmp: 7300 files added (on-disk size: 35815 KB)
0013.948 (0) Zip: backup_2018-02-07-0030_sparkDEMAND_c67ca600817d-plugins.zip.tmp: 7400 files added (on-disk size: 35815 KB)
0013.954 (0) Zip: backup_2018-02-07-0030_sparkDEMAND_c67ca600817d-plugins.zip.tmp: 7500 files added (on-disk size: 35815 KB)
0013.958 (0) Zip: backup_2018-02-07-0030_sparkDEMAND_c67ca600817d-plugins.zip.tmp: 7600 files added (on-disk size: 35815 KB)
0013.966 (0) Zip: backup_2018-02-07-0030_sparkDEMAND_c67ca600817d-plugins.zip.tmp: 7700 files added (on-disk size: 35815 KB)
0013.970 (0) Adding batch to zip file (UpdraftPlus_BinZip): over 500 files added on this batch (18.7 MB, 14917 files batched, 501 (7704) added so far); re-opening (prior size: 35815 KB)
0014.968 (0) Zip: backup_2018-02-07-0030_sparkDEMAND_c67ca600817d-plugins.zip.tmp: 7800 files added (on-disk size: 40279.7 KB)
0014.973 (0) Zip: backup_2018-02-07-0030_sparkDEMAND_c67ca600817d-plugins.zip.tmp: 7900 files added (on-disk size: 40279.7 KB)
0014.978 (0) Zip: backup_2018-02-07-0030_sparkDEMAND_c67ca600817d-plugins.zip.tmp: 8000 files added (on-disk size: 40279.7 KB)
0014.982 (0) Zip: backup_2018-02-07-0030_sparkDEMAND_c67ca600817d-plugins.zip.tmp: 8100 files added (on-disk size: 40279.7 KB)
0014.986 (0) Zip: backup_2018-02-07-0030_sparkDEMAND_c67ca600817d-plugins.zip.tmp: 8200 files added (on-disk size: 40279.7 KB)
0014.989 (0) Adding batch to zip file (UpdraftPlus_BinZip): over 500 files added on this batch (6.1 MB, 14917 files batched, 501 (8205) added so far); re-opening (prior size: 40279.7 KB)
0015.557 (0) Zip: backup_2018-02-07-0030_sparkDEMAND_c67ca600817d-plugins.zip.tmp: 8300 files added (on-disk size: 43042 KB)
0015.562 (0) Zip: backup_2018-02-07-0030_sparkDEMAND_c67ca600817d-plugins.zip.tmp: 8400 files added (on-disk size: 43042 KB)
0015.567 (0) Zip: backup_2018-02-07-0030_sparkDEMAND_c67ca600817d-plugins.zip.tmp: 8500 files added (on-disk size: 43042 KB)
0015.572 (0) Zip: backup_2018-02-07-0030_sparkDEMAND_c67ca600817d-plugins.zip.tmp: 8600 files added (on-disk size: 43042 KB)
0015.576 (0) Zip: backup_2018-02-07-0030_sparkDEMAND_c67ca600817d-plugins.zip.tmp: 8700 files added (on-disk size: 43042 KB)
0015.580 (0) Adding batch to zip file (UpdraftPlus_BinZip): over 500 files added on this batch (2.6 MB, 14917 files batched, 501 (8706) added so far); re-opening (prior size: 43042 KB)
0016.044 (0) Zip: backup_2018-02-07-0030_sparkDEMAND_c67ca600817d-plugins.zip.tmp: 8800 files added (on-disk size: 43968.8 KB)
0016.051 (0) Zip: backup_2018-02-07-0030_sparkDEMAND_c67ca600817d-plugins.zip.tmp: 8900 files added (on-disk size: 43968.8 KB)
0016.056 (0) Zip: backup_2018-02-07-0030_sparkDEMAND_c67ca600817d-plugins.zip.tmp: 9000 files added (on-disk size: 43968.8 KB)
0016.061 (0) Zip: backup_2018-02-07-0030_sparkDEMAND_c67ca600817d-plugins.zip.tmp: 9100 files added (on-disk size: 43968.8 KB)
0016.065 (0) Zip: backup_2018-02-07-0030_sparkDEMAND_c67ca600817d-plugins.zip.tmp: 9200 files added (on-disk size: 43968.8 KB)
0016.069 (0) Adding batch to zip file (UpdraftPlus_BinZip): over 500 files added on this batch (14 MB, 14917 files batched, 501 (9207) added so far); re-opening (prior size: 43968.8 KB)
0017.351 (0) Zip: backup_2018-02-07-0030_sparkDEMAND_c67ca600817d-plugins.zip.tmp: 9300 files added (on-disk size: 48198.6 KB)
0017.356 (0) Zip: backup_2018-02-07-0030_sparkDEMAND_c67ca600817d-plugins.zip.tmp: 9400 files added (on-disk size: 48198.6 KB)
0017.360 (0) Zip: backup_2018-02-07-0030_sparkDEMAND_c67ca600817d-plugins.zip.tmp: 9500 files added (on-disk size: 48198.6 KB)
0017.364 (0) Zip: backup_2018-02-07-0030_sparkDEMAND_c67ca600817d-plugins.zip.tmp: 9600 files added (on-disk size: 48198.6 KB)
0017.369 (0) Zip: backup_2018-02-07-0030_sparkDEMAND_c67ca600817d-plugins.zip.tmp: 9700 files added (on-disk size: 48198.6 KB)
0017.372 (0) Adding batch to zip file (UpdraftPlus_BinZip): over 500 files added on this batch (5.8 MB, 14917 files batched, 501 (9708) added so far); re-opening (prior size: 48198.6 KB)
0017.892 (0) Zip: backup_2018-02-07-0030_sparkDEMAND_c67ca600817d-plugins.zip.tmp: 9800 files added (on-disk size: 50142.6 KB)
0017.897 (0) Zip: backup_2018-02-07-0030_sparkDEMAND_c67ca600817d-plugins.zip.tmp: 9900 files added (on-disk size: 50142.6 KB)
0017.901 (0) Zip: backup_2018-02-07-0030_sparkDEMAND_c67ca600817d-plugins.zip.tmp: 10000 files added (on-disk size: 50142.6 KB)
0017.905 (0) Zip: backup_2018-02-07-0030_sparkDEMAND_c67ca600817d-plugins.zip.tmp: 10100 files added (on-disk size: 50142.6 KB)
0017.908 (0) Zip: backup_2018-02-07-0030_sparkDEMAND_c67ca600817d-plugins.zip.tmp: 10200 files added (on-disk size: 50142.6 KB)
0017.911 (0) Adding batch to zip file (UpdraftPlus_BinZip): over 500 files added on this batch (4.7 MB, 14917 files batched, 501 (10209) added so far); re-opening (prior size: 50142.6 KB)
0018.434 (0) Zip: backup_2018-02-07-0030_sparkDEMAND_c67ca600817d-plugins.zip.tmp: 10300 files added (on-disk size: 51857.3 KB)
0018.439 (0) Zip: backup_2018-02-07-0030_sparkDEMAND_c67ca600817d-plugins.zip.tmp: 10400 files added (on-disk size: 51857.3 KB)
0018.443 (0) Zip: backup_2018-02-07-0030_sparkDEMAND_c67ca600817d-plugins.zip.tmp: 10500 files added (on-disk size: 51857.3 KB)
0018.448 (0) Zip: backup_2018-02-07-0030_sparkDEMAND_c67ca600817d-plugins.zip.tmp: 10600 files added (on-disk size: 51857.3 KB)
0018.454 (0) Zip: backup_2018-02-07-0030_sparkDEMAND_c67ca600817d-plugins.zip.tmp: 10700 files added (on-disk size: 51857.3 KB)
0018.458 (0) Adding batch to zip file (UpdraftPlus_BinZip): over 500 files added on this batch (7 MB, 14917 files batched, 501 (10710) added so far); re-opening (prior size: 51857.3 KB)
0018.977 (0) Zip: backup_2018-02-07-0030_sparkDEMAND_c67ca600817d-plugins.zip.tmp: 10800 files added (on-disk size: 55873.2 KB)
0018.983 (0) Zip: backup_2018-02-07-0030_sparkDEMAND_c67ca600817d-plugins.zip.tmp: 10900 files added (on-disk size: 55873.2 KB)
0018.988 (0) Zip: backup_2018-02-07-0030_sparkDEMAND_c67ca600817d-plugins.zip.tmp: 11000 files added (on-disk size: 55873.2 KB)
0018.992 (0) Zip: backup_2018-02-07-0030_sparkDEMAND_c67ca600817d-plugins.zip.tmp: 11100 files added (on-disk size: 55873.2 KB)
0018.996 (0) Zip: backup_2018-02-07-0030_sparkDEMAND_c67ca600817d-plugins.zip.tmp: 11200 files added (on-disk size: 55873.2 KB)
0018.999 (0) Adding batch to zip file (UpdraftPlus_BinZip): over 500 files added on this batch (10.6 MB, 14917 files batched, 501 (11211) added so far); re-opening (prior size: 55873.2 KB)
0019.667 (0) Zip: backup_2018-02-07-0030_sparkDEMAND_c67ca600817d-plugins.zip.tmp: 11300 files added (on-disk size: 58491.2 KB)
0019.672 (0) Zip: backup_2018-02-07-0030_sparkDEMAND_c67ca600817d-plugins.zip.tmp: 11400 files added (on-disk size: 58491.2 KB)
0019.677 (0) Zip: backup_2018-02-07-0030_sparkDEMAND_c67ca600817d-plugins.zip.tmp: 11500 files added (on-disk size: 58491.2 KB)
0019.681 (0) Zip: backup_2018-02-07-0030_sparkDEMAND_c67ca600817d-plugins.zip.tmp: 11600 files added (on-disk size: 58491.2 KB)
0019.685 (0) Zip: backup_2018-02-07-0030_sparkDEMAND_c67ca600817d-plugins.zip.tmp: 11700 files added (on-disk size: 58491.2 KB)
0019.689 (0) Adding batch to zip file (UpdraftPlus_BinZip): over 500 files added on this batch (5.8 MB, 14917 files batched, 501 (11712) added so far); re-opening (prior size: 58491.2 KB)
0020.290 (0) Zip: backup_2018-02-07-0030_sparkDEMAND_c67ca600817d-plugins.zip.tmp: 11800 files added (on-disk size: 60349.2 KB)
0020.295 (0) Zip: backup_2018-02-07-0030_sparkDEMAND_c67ca600817d-plugins.zip.tmp: 11900 files added (on-disk size: 60349.2 KB)
0020.300 (0) Zip: backup_2018-02-07-0030_sparkDEMAND_c67ca600817d-plugins.zip.tmp: 12000 files added (on-disk size: 60349.2 KB)
0020.305 (0) Zip: backup_2018-02-07-0030_sparkDEMAND_c67ca600817d-plugins.zip.tmp: 12100 files added (on-disk size: 60349.2 KB)
0020.309 (0) Zip: backup_2018-02-07-0030_sparkDEMAND_c67ca600817d-plugins.zip.tmp: 12200 files added (on-disk size: 60349.2 KB)
0020.313 (0) Adding batch to zip file (UpdraftPlus_BinZip): over 500 files added on this batch (8.4 MB, 14917 files batched, 501 (12213) added so far); re-opening (prior size: 60349.2 KB)
0020.970 (0) Zip: backup_2018-02-07-0030_sparkDEMAND_c67ca600817d-plugins.zip.tmp: 12300 files added (on-disk size: 63773.3 KB)
0020.975 (0) Zip: backup_2018-02-07-0030_sparkDEMAND_c67ca600817d-plugins.zip.tmp: 12400 files added (on-disk size: 63773.3 KB)
0020.979 (0) Zip: backup_2018-02-07-0030_sparkDEMAND_c67ca600817d-plugins.zip.tmp: 12500 files added (on-disk size: 63773.3 KB)
0020.983 (0) Zip: backup_2018-02-07-0030_sparkDEMAND_c67ca600817d-plugins.zip.tmp: 12600 files added (on-disk size: 63773.3 KB)
0020.987 (0) Zip: backup_2018-02-07-0030_sparkDEMAND_c67ca600817d-plugins.zip.tmp: 12700 files added (on-disk size: 63773.3 KB)
0020.990 (0) Adding batch to zip file (UpdraftPlus_BinZip): over 500 files added on this batch (9.9 MB, 14917 files batched, 501 (12714) added so far); re-opening (prior size: 63773.3 KB)
0021.919 (0) Zip: backup_2018-02-07-0030_sparkDEMAND_c67ca600817d-plugins.zip.tmp: 12800 files added (on-disk size: 67684.7 KB)
0021.925 (0) Zip: backup_2018-02-07-0030_sparkDEMAND_c67ca600817d-plugins.zip.tmp: 12900 files added (on-disk size: 67684.7 KB)
0021.929 (0) Zip: backup_2018-02-07-0030_sparkDEMAND_c67ca600817d-plugins.zip.tmp: 13000 files added (on-disk size: 67684.7 KB)
0021.936 (0) Zip: backup_2018-02-07-0030_sparkDEMAND_c67ca600817d-plugins.zip.tmp: 13100 files added (on-disk size: 67684.7 KB)
0021.942 (0) Zip: backup_2018-02-07-0030_sparkDEMAND_c67ca600817d-plugins.zip.tmp: 13200 files added (on-disk size: 67684.7 KB)
0021.947 (0) Adding batch to zip file (UpdraftPlus_BinZip): over 500 files added on this batch (2.8 MB, 14917 files batched, 501 (13215) added so far); re-opening (prior size: 67684.7 KB)
0022.389 (0) Zip: backup_2018-02-07-0030_sparkDEMAND_c67ca600817d-plugins.zip.tmp: 13300 files added (on-disk size: 68529.7 KB)
0022.394 (0) Zip: backup_2018-02-07-0030_sparkDEMAND_c67ca600817d-plugins.zip.tmp: 13400 files added (on-disk size: 68529.7 KB)
0022.398 (0) Zip: backup_2018-02-07-0030_sparkDEMAND_c67ca600817d-plugins.zip.tmp: 13500 files added (on-disk size: 68529.7 KB)
0022.403 (0) Zip: backup_2018-02-07-0030_sparkDEMAND_c67ca600817d-plugins.zip.tmp: 13600 files added (on-disk size: 68529.7 KB)
0022.408 (0) Zip: backup_2018-02-07-0030_sparkDEMAND_c67ca600817d-plugins.zip.tmp: 13700 files added (on-disk size: 68529.7 KB)
0022.411 (0) Adding batch to zip file (UpdraftPlus_BinZip): over 500 files added on this batch (3.7 MB, 14917 files batched, 501 (13716) added so far); re-opening (prior size: 68529.7 KB)
0022.902 (0) Zip: backup_2018-02-07-0030_sparkDEMAND_c67ca600817d-plugins.zip.tmp: 13800 files added (on-disk size: 69993.1 KB)
0022.907 (0) Zip: backup_2018-02-07-0030_sparkDEMAND_c67ca600817d-plugins.zip.tmp: 13900 files added (on-disk size: 69993.1 KB)
0022.911 (0) Zip: backup_2018-02-07-0030_sparkDEMAND_c67ca600817d-plugins.zip.tmp: 14000 files added (on-disk size: 69993.1 KB)
0022.915 (0) Zip: backup_2018-02-07-0030_sparkDEMAND_c67ca600817d-plugins.zip.tmp: 14100 files added (on-disk size: 69993.1 KB)
0022.918 (0) Zip: backup_2018-02-07-0030_sparkDEMAND_c67ca600817d-plugins.zip.tmp: 14200 files added (on-disk size: 69993.1 KB)
0022.921 (0) Adding batch to zip file (UpdraftPlus_BinZip): over 500 files added on this batch (4.1 MB, 14917 files batched, 501 (14217) added so far); re-opening (prior size: 69993.1 KB)
0023.375 (0) Zip: backup_2018-02-07-0030_sparkDEMAND_c67ca600817d-plugins.zip.tmp: 14300 files added (on-disk size: 71624.8 KB)
0023.382 (0) Zip: backup_2018-02-07-0030_sparkDEMAND_c67ca600817d-plugins.zip.tmp: 14400 files added (on-disk size: 71624.8 KB)
0023.388 (0) Zip: backup_2018-02-07-0030_sparkDEMAND_c67ca600817d-plugins.zip.tmp: 14500 files added (on-disk size: 71624.8 KB)
0023.395 (0) Zip: backup_2018-02-07-0030_sparkDEMAND_c67ca600817d-plugins.zip.tmp: 14600 files added (on-disk size: 71624.8 KB)
0023.401 (0) Zip: backup_2018-02-07-0030_sparkDEMAND_c67ca600817d-plugins.zip.tmp: 14700 files added (on-disk size: 71624.8 KB)
0023.406 (0) Adding batch to zip file (UpdraftPlus_BinZip): over 500 files added on this batch (5.8 MB, 14917 files batched, 501 (14718) added so far); re-opening (prior size: 71624.8 KB)
0023.884 (0) Zip: backup_2018-02-07-0030_sparkDEMAND_c67ca600817d-plugins.zip.tmp: 14800 files added (on-disk size: 73130.8 KB)
0023.889 (0) Zip: backup_2018-02-07-0030_sparkDEMAND_c67ca600817d-plugins.zip.tmp: 14900 files added (on-disk size: 73130.8 KB)
0025.196 (0) Created plugins zip (0) - 74708.3 KB in 25 s (2983 KB/s) (sha1: cc763c7230db13078b2b9ae144b376bfbaa15374, sha256: c191fc68b7662acb0a121b4d845046f77fd573b5ed4f26ef050c329439f91608)
0025.202 (0) Beginning creation of dump of themes (split every: 400 MB)
0025.292 (0) Total entities for the zip file: 288 directories, 1247 files (0 skipped as non-modified), 27.4 MB
0025.298 (0) Zip: backup_2018-02-07-0030_sparkDEMAND_c67ca600817d-themes.zip.tmp: 100 files added (on-disk size: 0 KB)
0025.303 (0) Zip: backup_2018-02-07-0030_sparkDEMAND_c67ca600817d-themes.zip.tmp: 200 files added (on-disk size: 0 KB)
0025.308 (0) Zip: backup_2018-02-07-0030_sparkDEMAND_c67ca600817d-themes.zip.tmp: 300 files added (on-disk size: 0 KB)
0025.313 (0) Zip: backup_2018-02-07-0030_sparkDEMAND_c67ca600817d-themes.zip.tmp: 400 files added (on-disk size: 0 KB)
0025.318 (0) Zip: backup_2018-02-07-0030_sparkDEMAND_c67ca600817d-themes.zip.tmp: 500 files added (on-disk size: 0 KB)
0025.321 (0) Adding batch to zip file (UpdraftPlus_BinZip): over 500 files added on this batch (3.8 MB, 1247 files batched, 501 (501) added so far); re-opening (prior size: 0 KB)
0025.641 (0) backup_2018-02-07-0030_sparkDEMAND_c67ca600817d-themes.zip.tmp: size is now: 1.30 MB
0025.648 (0) Zip: backup_2018-02-07-0030_sparkDEMAND_c67ca600817d-themes.zip.tmp: 600 files added (on-disk size: 1368.3 KB)
0025.653 (0) Zip: backup_2018-02-07-0030_sparkDEMAND_c67ca600817d-themes.zip.tmp: 700 files added (on-disk size: 1368.3 KB)
0025.657 (0) Zip: backup_2018-02-07-0030_sparkDEMAND_c67ca600817d-themes.zip.tmp: 800 files added (on-disk size: 1368.3 KB)
0025.661 (0) Zip: backup_2018-02-07-0030_sparkDEMAND_c67ca600817d-themes.zip.tmp: 900 files added (on-disk size: 1368.3 KB)
0025.666 (0) Zip: backup_2018-02-07-0030_sparkDEMAND_c67ca600817d-themes.zip.tmp: 1000 files added (on-disk size: 1368.3 KB)
0025.669 (0) Adding batch to zip file (UpdraftPlus_BinZip): over 500 files added on this batch (20.1 MB, 1247 files batched, 501 (1002) added so far); re-opening (prior size: 1368.3 KB)
0027.035 (0) backup_2018-02-07-0030_sparkDEMAND_c67ca600817d-themes.zip.tmp: size is now: 7.70 MB
0027.042 (0) Zip: backup_2018-02-07-0030_sparkDEMAND_c67ca600817d-themes.zip.tmp: 1100 files added (on-disk size: 7884 KB)
0027.046 (0) Zip: backup_2018-02-07-0030_sparkDEMAND_c67ca600817d-themes.zip.tmp: 1200 files added (on-disk size: 7884 KB)
0027.375 (0) Created themes zip (0) - 9032 KB in 2.2 s (4192.7 KB/s) (sha1: b47944574a33d04a1588c80e1349361bf84f3f57, sha256: 892e47205cef091da1c8d99f01df283c6360b956c3dc0ea0042d3531572116c6)
0027.380 (0) Exclusion option setting (uploads): backup*,*backups,backwpup*,wp-clone,snapshots
0027.383 (0) Looking for candidates to back up in: /home/sparkdem/public_html/wp-content/uploads
0027.387 (0) finding files: sparkDEMAND-Favicon-510x382.png: adding to list (1)
0027.390 (0) finding files: Growth-Hacking-Online-400x284.png: adding to list (2)
0027.393 (0) finding files: growth-hacking-hero-610x255.png: adding to list (3)
0027.396 (0) finding files: design_hero-400x284.png: adding to list (4)
0027.398 (0) finding files: design_hero-157x157.png: adding to list (5)
0027.401 (0) finding files: digital-landscape_hero-1024x683.png: adding to list (6)
0027.404 (0) finding files: Growth-Hacking-Online-510x382.png: adding to list (7)
0027.406 (0) finding files: divi-dashboard-welcome-layout-2-bg3-400x516.jpg: adding to list (8)
0027.409 (0) finding files: sparkDEMAND-Favicon2.png: adding to list (9)
0027.411 (0) finding files: growth_hacking-400x284.png: adding to list (10)
0027.414 (0) finding files: divi-dashboard-welcome-layout-2-bg3-610x407.jpg: adding to list (11)
0027.417 (0) finding files: Growth-Hacking-Online-400x450.png: adding to list (12)
0027.420 (0) finding files: design_hero-610x407.png: adding to list (13)
0027.423 (0) finding files: social_icon.png: adding to list (14)
0027.426 (0) finding files: cropped-sparkDEMAND-Favicon-300x300.png: adding to list (15)
0027.429 (0) finding files: cropped-sparkDEMAND-Favicon-400x284.png: adding to list (16)
0027.432 (0) finding files: digital-landscape_hero-157x157.png: adding to list (17)
0027.435 (0) finding files: growth-hacking-hero-157x157.png: adding to list (18)
0027.438 (0) finding files: design_hero-400x250.png: adding to list (19)
0027.441 (0) finding files: brand_identity_icon-150x150.png: adding to list (20)
0027.444 (0) finding files: cropped-sparkDEMAND-Favicon-180x180.png: adding to list (21)
0027.450 (0) finding files: growth-hacking-hero-400x311.png: adding to list (22)
0027.493 (0) finding files: sparkDEMAND-Favicon.png: adding to list (23)
0027.496 (0) finding files: Growth-Hacking-Online-510x287.png: adding to list (24)
0027.499 (0) finding files: digital-landscape_hero-300x200.png: adding to list (25)
0027.503 (0) finding files: social_icon-150x150.png: adding to list (26)
0027.507 (0) finding files: sparkDEMAND-Favicon-510x510.png: adding to list (27)
0027.511 (0) finding files: web_development_icon.png: adding to list (28)
0027.516 (0) finding files: design_hero-1080x720.png: adding to list (29)
0027.520 (0) finding files: sparkDEMAND-Favicon-400x400.png: adding to list (30)
0027.523 (0) finding files: analytics_icon-150x150.png: adding to list (31)
0027.527 (0) finding files: redux: adding to list (32)
0027.533 (0) finding files: growth_hacking-510x306.png: adding to list (33)
0027.537 (0) finding files: paid_search_icon-157x157.png: adding to list (34)
0027.540 (0) finding files: sparkDEMAND-Favicon-400x284.png: adding to list (35)
0027.543 (0) finding files: divi-dashboard-welcome-layout-2-bg3-768x512.jpg: adding to list (36)
0027.546 (0) finding files: cropped-sparkDEMAND-Favicon-400x512.png: adding to list (37)
0027.549 (0) finding files: social_icon-157x157.png: adding to list (38)
0027.553 (0) finding files: Growth-Hacking-Online-400x400.png: adding to list (39)
0027.556 (0) finding files: cropped-sparkDEMAND-Favicon-e1507440965512.png: adding to list (40)
0027.560 (0) finding files: wc-logs: adding to list (41)
0027.563 (0) finding files: design_hero-300x200.png: adding to list (42)
0027.566 (0) finding files: cropped-sparkDEMAND-Favicon-192x192.png: adding to list (43)
0027.569 (0) finding files: Growth-Hacking-Online-610x343.png: adding to list (44)
0027.572 (0) finding files: web_development_icon-150x150.png: adding to list (45)
0027.575 (0) finding files: design_hero.png.processing: adding to list (46)
0027.578 (0) finding files: design_hero-1024x683.png: adding to list (47)
0027.580 (0) finding files: digital-landscape_hero-510x340.png: adding to list (48)
0027.583 (0) finding files: wpclient: adding to list (49)
0027.586 (0) finding files: marketing_automation_icon-150x150.png: adding to list (50)
0027.589 (0) finding files: Growth-Hacking-Online-157x157.png: adding to list (51)
0027.589 (0) finding files: growth-hacking-hero-400x284.png: adding to list (52)
0027.589 (0) finding files: growth_hacking-400x250.png: adding to list (53)
0027.589 (0) finding files: growth_hacking-150x150.png: adding to list (54)
0027.589 (0) finding files: et_temp: adding to list (55)
0027.589 (0) finding files: Growth-Hacking-Online.png: adding to list (56)
0027.589 (0) finding files: content_marketing_icon.png: adding to list (57)
0027.589 (0) finding files: cropped-sparkDEMAND-Favicon-510x382.png: adding to list (58)
0027.589 (0) finding files: growth_hacking-1080x648.png: adding to list (59)
0027.589 (0) finding files: digital-landscape_hero-1080x675.png: adding to list (60)
0027.589 (0) finding files: demand-generation-diagram.jpg: adding to list (61)
0027.589 (0) finding files: brand_identity_icon-157x157.png: adding to list (62)
0027.589 (0) finding files: content_marketing_icon-157x157.png: adding to list (63)
0027.589 (0) finding files: cropped-sparkDEMAND-Favicon-32x32.png: adding to list (64)
0027.589 (0) finding files: growth_hacking-1080x675.png: adding to list (65)
0027.589 (0) finding files: Growth-Hacking-Online-300x169.png: adding to list (66)
0027.589 (0) finding files: growth-hacking-hero-300x125.png: adding to list (67)
0027.589 (0) finding files: Growth-Hacking-Online-768x432.png: adding to list (68)
0027.589 (0) finding files: sparkDEMAND-Favicon-e1507441095544.png: adding to list (69)
0027.589 (0) finding files: web_development_icon-157x157.png: adding to list (70)
0027.589 (0) finding files: GeoIP.dat: adding to list (71)
0027.589 (0) finding files: seo_icon-150x150.png: adding to list (72)
0027.589 (0) finding files: sparkDEMAND-Favicon-300x300.png: adding to list (73)
0027.589 (0) finding files: cropped-sparkDEMAND-Favicon-e1507440993155.png: adding to list (74)
0027.589 (0) finding files: growth_hacking-610x366.png: adding to list (75)
0027.589 (0) finding files: wpc_custom_style__default_scheme.css: adding to list (76)
0027.589 (0) finding files: digital-landscape_hero-768x512.png: adding to list (77)
0027.589 (0) finding files: growth-hacking-hero-400x250.png: adding to list (78)
0027.589 (0) finding files: design_hero-1080x675.png: adding to list (79)
0027.589 (0) finding files: growth_hacking-400x516.png: adding to list (80)
0027.589 (0) finding files: woocommerce_uploads: adding to list (81)
0027.589 (0) finding files: divi-dashboard-welcome-layout-2-bg3-157x157.jpg: adding to list (82)
0027.589 (0) finding files: appointments-log.txt: adding to list (83)
0027.589 (0) finding files: demand-generation-diagram-510x231.jpg: adding to list (84)
0027.589 (0) finding files: growth_hacking-300x180.png: adding to list (85)
0027.589 (0) finding files: digital-landscape_hero-400x400.png: adding to list (86)
0027.589 (0) finding files: email_marketing_icon-150x150.png: adding to list (87)
0027.589 (0) finding files: divi-dashboard-welcome-layout-2-bg3-400x250.jpg: adding to list (88)
0027.589 (0) finding files: 2017: adding to list (89)
0027.589 (0) finding files: brand_identity_icon.png: adding to list (90)
0027.589 (0) finding files: growth_hacking-1024x614.png: adding to list (91)
0027.589 (0) finding files: marketing_automation_icon.png: adding to list (92)
0027.589 (0) finding files: design_hero-400x516.png: adding to list (93)
0027.589 (0) finding files: divi-dashboard-welcome-layout-2-bg3-400x284.jpg: adding to list (94)
0027.589 (0) finding files: design_hero-150x150.png: adding to list (95)
0027.589 (0) finding files: GeoIPv6.dat: adding to list (96)
0027.589 (0) finding files: paid_search_icon-150x150.png: adding to list (97)
0027.589 (0) finding files: growth-hacking-hero-150x150.png: adding to list (98)
0027.589 (0) finding files: divi-dashboard-welcome-layout-2-bg3-300x200.jpg: adding to list (99)
0027.589 (0) finding files: demand-generation-diagram-610x211.jpg: adding to list (100)
0027.592 (0) finding files: divi-dashboard-welcome-layout-2-bg3.jpg: adding to list (101)
0027.592 (0) finding files: growth_hacking-2880x1800.png: adding to list (102)
0027.592 (0) finding files: demand-generation-diagram-400x231.jpg: adding to list (103)
0027.592 (0) finding files: demand-generation-diagram-300x104.jpg: adding to list (104)
0027.592 (0) finding files: cropped-sparkDEMAND-Favicon-150x150.png: adding to list (105)
0027.592 (0) finding files: demand-generation-diagram-150x150.jpg: adding to list (106)
0027.592 (0) finding files: cropped-sparkDEMAND-Favicon-400x250.png: adding to list (107)
0027.592 (0) finding files: divi-dashboard-welcome-layout-2-bg3-150x150.jpg: adding to list (108)
0027.592 (0) finding files: growth-hacking-hero-510x311.png: adding to list (109)
0027.592 (0) finding files: cropped-sparkDEMAND-Favicon.png: adding to list (110)
0027.592 (0) finding files: design_hero-510x340.png: adding to list (111)
0027.592 (0) finding files: Growth-Hacking-Online-400x250.png: adding to list (112)
0027.592 (0) finding files: so-css: adding to list (113)
0027.592 (0) finding files: paid_search_icon.png: adding to list (114)
0027.592 (0) finding files: sparkDEMAND-Favicon-400x516.png: adding to list (115)
0027.592 (0) finding files: design_hero-2880x1800.png: adding to list (116)
0027.592 (0) finding files: growth_hacking.png: adding to list (117)
0027.593 (0) finding files: Growth-Hacking-Online-150x150.png: adding to list (118)
0027.593 (0) finding files: digital-landscape_hero-510x382.png: adding to list (119)
0027.593 (0) finding files: design_hero-510x382.png: adding to list (120)
0027.593 (0) finding files: analytics_icon-157x157.png: adding to list (121)
0027.593 (0) finding files: digital-landscape_hero-610x407.png: adding to list (122)
0027.593 (0) finding files: design_hero-400x400.png: adding to list (123)
0027.593 (0) finding files: growth_hacking-768x461.png: adding to list (124)
0027.593 (0) finding files: seo_icon.png: adding to list (125)
0027.593 (0) finding files: divi-dashboard-welcome-layout-2-bg3-400x400.jpg: adding to list (126)
0027.593 (0) finding files: sparkDEMAND-Favicon-157x157.png: adding to list (127)
0027.593 (0) finding files: sparkDEMAND-Favicon-400x250.png: adding to list (128)
0027.593 (0) finding files: growth-hacking-hero-510x213.png: adding to list (129)
0027.593 (0) finding files: digital-landscape_hero-400x284.png: adding to list (130)
0027.593 (0) finding files: cropped-sparkDEMAND-Favicon-270x270.png: adding to list (131)
0027.593 (0) finding files: growth_hacking-157x157.png: adding to list (132)
0027.593 (0) finding files: growth-hacking-hero.png: adding to list (133)
0027.593 (0) finding files: divi-dashboard-welcome-layout-2-bg3-510x382.jpg: adding to list (134)
0027.593 (0) finding files: design_hero-768x512.png: adding to list (135)
0027.593 (0) finding files: useanyfont: adding to list (136)
0027.593 (0) finding files: divi-dashboard-welcome-layout-2-bg3-510x340.jpg: adding to list (137)
0027.593 (0) finding files: ithemes-security: adding to list (138)
0027.593 (0) finding files: content_marketing_icon-150x150.png: adding to list (139)
0027.593 (0) finding files: design_hero.png: adding to list (140)
0027.593 (0) finding files: email_marketing_icon-157x157.png: adding to list (141)
0027.593 (0) finding files: marketing_automation_icon-157x157.png: adding to list (142)
0027.593 (0) finding files: analytics_icon.png: adding to list (143)
0027.593 (0) finding files: digital-landscape_hero-400x250.png: adding to list (144)
0027.593 (0) finding files: digital-landscape_hero-1080x720.png: adding to list (145)
0027.593 (0) finding files: sparkDEMAND-Favicon-150x150.png: adding to list (146)
0027.593 (0) finding files: digital-landscape_hero-400x516.png: adding to list (147)
0027.593 (0) finding files: digital-landscape_hero.png: adding to list (148)
0027.593 (0) finding files: growth_hacking-510x382.png: adding to list (149)
0027.593 (0) finding files: digital-landscape_hero-150x150.png: adding to list (150)
0027.593 (0) finding files: wtfdivi: adding to list (151)
0027.593 (0) finding files: email_marketing_icon.png: adding to list (152)
0027.593 (0) finding files: seo_icon-157x157.png: adding to list (153)
0027.593 (0) finding files: growth_hacking-400x400.png: adding to list (154)
0027.593 (0) Beginning creation of dump of uploads (split every: 400 MB)
0027.616 (0) Total entities for the zip file: 17 directories, 174 files (0 skipped as non-modified), 48.2 MB
0027.621 (0) Zip: backup_2018-02-07-0030_sparkDEMAND_c67ca600817d-uploads.zip.tmp: 100 files added (on-disk size: 0 KB)
0027.624 (0) Adding batch to zip file (UpdraftPlus_BinZip): over 25 MB added on this batch (47.7 MB, 174 files batched, 157 (157) added so far); re-opening (prior size: 0 KB)
0028.210 (0) backup_2018-02-07-0030_sparkDEMAND_c67ca600817d-uploads.zip.tmp: size is now: 46.20 MB
0028.215 (0) A useful amount of data was added after this amount of zip processing: 1.4 s (normalised: 0.7 s, rate: 34526.3 KB/s)
0028.219 (0) Performance is good - will increase the amount of data we attempt to batch (time=1.4132740497589, normalised_time=0.74146284549408, max_time=-1, data points known=0, old_max_bytes=26214400, new_max_bytes=209715200)
0028.924 (0) Created uploads zip (0) - 47815.3 KB in 1.3 s (36323.1 KB/s) (sha1: 0ccd46a99a9bd8640aa25c2eb90766a2e6758fdd, sha256: 85b15753a01d6c65ba660b82439fc5e80d83d41fc7613a3703e830c92df8ba8a)
0028.931 (0) Beginning backup of other directories found in the content directory (index: 0)
0028.935 (0) Exclusion option setting (others): upgrade,cache,updraft,backup*,*backups,mysql.sql,debug.log
0028.940 (0) Looking for candidates to back up in: /home/sparkdem/public_html/wp-content
0028.944 (0) finding files: plugins: skipping: this is the plugins directory
0028.949 (0) finding files: uploads: skipping: this is the uploads directory
0028.954 (0) finding files: index.php: adding to list (1)
0028.958 (0) finding files: debug.log: skipping: excluded by options
0028.963 (0) finding files: wflogs: adding to list (2)
0028.967 (0) finding files: advanced-cache.php: adding to list (3)
0028.971 (0) finding files: cache: skipping: excluded by options
0028.975 (0) finding files: updraft: skipping: this is the updraft directory
0028.980 (0) finding files: themes: skipping: this is the themes directory
0028.984 (0) finding files: object-cache.php: adding to list (4)
0028.988 (0) finding files: upgrade: skipping: excluded by options
0028.992 (0) finding files: w3tc-config: adding to list (5)
0029.013 (0) Total entities for the zip file: 2 directories, 11 files (0 skipped as non-modified), 0.8 MB
0029.064 (0) backup_2018-02-07-0030_sparkDEMAND_c67ca600817d-others.zip.tmp: size is now: 0.30 MB
0029.079 (0) Created others zip (0) - 343.6 KB in 0.1 s (4993.4 KB/s) (sha1: 1c02aa4bb98a166ae790b7ce1e6f975c83c4a470, sha256: 16194e95a6e4cd3a5c668dc7ffdd788b71cf1479cfcdc048f54e42681e7bf5f9)
0029.085 (0) Saving backup status to database (elements: 8)
0029.094 (0) No database backup (wp) - not part of this run
0029.109 (0) backup_2018-02-07-0030_sparkDEMAND_c67ca600817d-plugins.zip: plugins: This file has not yet been successfully uploaded: will queue
0029.114 (0) backup_2018-02-07-0030_sparkDEMAND_c67ca600817d-themes.zip: themes: This file has not yet been successfully uploaded: will queue
0029.118 (0) backup_2018-02-07-0030_sparkDEMAND_c67ca600817d-uploads.zip: uploads: This file has not yet been successfully uploaded: will queue
0029.123 (0) backup_2018-02-07-0030_sparkDEMAND_c67ca600817d-others.zip: others: This file has not yet been successfully uploaded: will queue
0029.127 (0) Saving backup history. Total backup size: 128.8 MB
0029.140 (0) Requesting upload of the files that have not yet been successfully uploaded (4)
0029.146 (0) Cloud backup selection (1/1): dropbox with instance (1/1) (last)
0029.150 (0) Beginning dispatch of backup to remote (dropbox) (instance identifier s-d4f1e8b0a95c19c28538466ffdd15994)
0029.155 (0) Dropbox: begin cloud upload (using API version 2 with OAuth v2 token)
0029.163 (0) Dropbox: access gained; setting chunk size to: 1024 KB
0029.536 (0) Dropbox quota usage: used=912.9 MB, total=2048 MB, available=1135.1 MB
0029.540 (0) Dropbox: Attempt to upload: backup_2018-02-07-0030_sparkDEMAND_c67ca600817d-plugins.zip to: backup_2018-02-07-0030_sparkDEMAND_c67ca600817d-plugins.zip
0030.616 (0) Dropbox chunked upload: 1.4 % uploaded (AAAAAAAAK1fEK2cOg_M-1g, 1048576, 8192 KB)
0033.803 (0) Dropbox chunked upload: 12.3 % uploaded (AAAAAAAAK1fEK2cOg_M-1g, 9437184, 10240 KB)
0042.982 (0) Dropbox chunked upload: 26 % uploaded (AAAAAAAAK1fEK2cOg_M-1g, 19922944, 10240 KB)
0050.546 (0) Dropbox chunked upload: 39.7 % uploaded (AAAAAAAAK1fEK2cOg_M-1g, 30408704, 10240 KB)
0054.837 (0) Dropbox chunked upload: 53.5 % uploaded (AAAAAAAAK1fEK2cOg_M-1g, 40894464, 10240 KB)
0059.856 (0) Dropbox chunked upload: 67.2 % uploaded (AAAAAAAAK1fEK2cOg_M-1g, 51380224, 10240 KB)
0063.892 (0) Dropbox chunked upload: 80.9 % uploaded (AAAAAAAAK1fEK2cOg_M-1g, 61865984, 10240 KB)
0068.738 (0) Dropbox chunked upload: 94.6 % uploaded (AAAAAAAAK1fEK2cOg_M-1g, 72351744, 10240 KB)
0070.938 (0) Dropbox chunked upload: 100 % uploaded (AAAAAAAAK1fEK2cOg_M-1g, 76501338, 10240 KB)
0072.053 (0) Recording as successfully uploaded: backup_2018-02-07-0030_sparkDEMAND_c67ca600817d-plugins.zip (d1014507902d80a4f2b7110a517e32ba)
0072.072 (0) Deleting local file: backup_2018-02-07-0030_sparkDEMAND_c67ca600817d-plugins.zip: OK
0072.076 (0) Dropbox: File upload success (backup_2018-02-07-0030_sparkDEMAND_c67ca600817d-plugins.zip): 74708 KB in 42s (1756 KB/s)
0072.336 (0) Dropbox quota usage: used=985.8 MB, total=2048 MB, available=1062.2 MB
0072.340 (0) Dropbox: Attempt to upload: backup_2018-02-07-0030_sparkDEMAND_c67ca600817d-themes.zip to: backup_2018-02-07-0030_sparkDEMAND_c67ca600817d-themes.zip
0075.772 (0) Dropbox chunked upload: 100 % uploaded (AAAAAAAAK1jInstkxzY7gw, 9248806, 10240 KB)
0076.811 (0) Recording as successfully uploaded: backup_2018-02-07-0030_sparkDEMAND_c67ca600817d-themes.zip (fc12c3174be9944d465012cc676b687c)
0076.817 (0) Deleting local file: backup_2018-02-07-0030_sparkDEMAND_c67ca600817d-themes.zip: OK
0076.821 (0) Dropbox: File upload success (backup_2018-02-07-0030_sparkDEMAND_c67ca600817d-themes.zip): 9032 KB in 4s (2015 KB/s)
0077.098 (0) Dropbox quota usage: used=994.7 MB, total=2048 MB, available=1053.3 MB
0077.101 (0) Dropbox: Attempt to upload: backup_2018-02-07-0030_sparkDEMAND_c67ca600817d-uploads.zip to: backup_2018-02-07-0030_sparkDEMAND_c67ca600817d-uploads.zip
0081.066 (0) Dropbox chunked upload: 21.4 % uploaded (AAAAAAAAK1kKsLO4S5epag, 10485760, 10240 KB)
0085.153 (0) Dropbox chunked upload: 42.8 % uploaded (AAAAAAAAK1kKsLO4S5epag, 20971520, 10240 KB)
0088.712 (0) Dropbox chunked upload: 64.2 % uploaded (AAAAAAAAK1kKsLO4S5epag, 31457280, 10240 KB)
0093.419 (0) Dropbox chunked upload: 85.7 % uploaded (AAAAAAAAK1kKsLO4S5epag, 41943040, 10240 KB)
0096.256 (0) Dropbox chunked upload: 100 % uploaded (AAAAAAAAK1kKsLO4S5epag, 48962866, 10240 KB)
0098.787 (0) Recording as successfully uploaded: backup_2018-02-07-0030_sparkDEMAND_c67ca600817d-uploads.zip (9a2cc46526cb143693e336819d950887)
0098.800 (0) Deleting local file: backup_2018-02-07-0030_sparkDEMAND_c67ca600817d-uploads.zip: OK
0098.803 (0) Dropbox: File upload success (backup_2018-02-07-0030_sparkDEMAND_c67ca600817d-uploads.zip): 47815 KB in 21s (2203 KB/s)
0099.082 (0) Dropbox quota usage: used=1041.4 MB, total=2048 MB, available=1006.6 MB
0099.085 (0) Dropbox: Attempt to upload: backup_2018-02-07-0030_sparkDEMAND_c67ca600817d-others.zip to: backup_2018-02-07-0030_sparkDEMAND_c67ca600817d-others.zip
0099.968 (0) Dropbox chunked upload: 100 % uploaded (AAAAAAAAK1p_1drX_L7DSQ, 351832, 10240 KB)
0101.048 (0) Recording as successfully uploaded: backup_2018-02-07-0030_sparkDEMAND_c67ca600817d-others.zip (ffebf836c37e8057ee3325f6094c8cd1)
0101.052 (0) Deleting local file: backup_2018-02-07-0030_sparkDEMAND_c67ca600817d-others.zip: OK
0101.055 (0) Dropbox: File upload success (backup_2018-02-07-0030_sparkDEMAND_c67ca600817d-others.zip): 343 KB in 1s (174 KB/s)
0101.060 (0) Retain: beginning examination of existing backup sets; user setting: retain_files=7, retain_db=2
0101.064 (0) Number of backup sets in history: 9; groups (db): 1
0101.067 (0) Examining (for databases) backup set with group_id=0, nonce=c67ca600817d, datestamp=1517981413 (Feb 07 2018 05:30:13)
0101.069 (0) Examining (for databases) backup set with group_id=0, nonce=6944f297cd90, datestamp=1517895013 (Feb 06 2018 05:30:13)
0101.069 (0) Examining (for databases) backup set with group_id=0, nonce=abc5016929e3, datestamp=1517808609 (Feb 05 2018 05:30:09)
0101.069 (0) This backup set remains non-empty (f=1/d=1); will retain in history
0101.072 (0) Examining (for databases) backup set with group_id=0, nonce=4faef1879f18, datestamp=1517722225 (Feb 04 2018 05:30:25)
0101.072 (0) Examining (for databases) backup set with group_id=0, nonce=7f84ae6fa938, datestamp=1517635809 (Feb 03 2018 05:30:09)
0101.072 (0) Examining (for databases) backup set with group_id=0, nonce=9795779454d4, datestamp=1517549409 (Feb 02 2018 05:30:09)
0101.072 (0) Examining (for databases) backup set with group_id=0, nonce=f39adb05877a, datestamp=1517463005 (Feb 01 2018 05:30:05)
0101.072 (0) Examining (for databases) backup set with group_id=0, nonce=3bb26cba569f, datestamp=1517376612 (Jan 31 2018 05:30:12)
0101.072 (0) Examining (for databases) backup set with group_id=0, nonce=6af56109a84a, datestamp=1517203807 (Jan 29 2018 05:30:07)
0101.072 (0) This backup set remains non-empty (f=0/d=1); will retain in history
0101.075 (0) Number of backup sets in history: 9; groups (files): 1
0101.077 (0) Examining (for files) backup set with nonce=c67ca600817d, datestamp=1517981413 (Feb 07 2018 05:30:13)
0101.077 (0) This backup set is the backup set just made, so will not be deleted.
0101.080 (0) This backup set is the backup set just made, so will not be deleted.
0101.080 (0) This backup set is the backup set just made, so will not be deleted.
0101.080 (0) This backup set is the backup set just made, so will not be deleted.
0101.080 (0) This backup set remains non-empty (f=1/d=0); will retain in history
0101.083 (0) Examining (for files) backup set with nonce=6944f297cd90, datestamp=1517895013 (Feb 06 2018 05:30:13)
0101.083 (0) This backup set remains non-empty (f=1/d=0); will retain in history
0101.083 (0) Examining (for files) backup set with nonce=abc5016929e3, datestamp=1517808609 (Feb 05 2018 05:30:09)
0101.083 (0) This backup set remains non-empty (f=1/d=1); will retain in history
0101.086 (0) Examining (for files) backup set with nonce=4faef1879f18, datestamp=1517722225 (Feb 04 2018 05:30:25)
0101.086 (0) This backup set remains non-empty (f=1/d=0); will retain in history
0101.089 (0) Examining (for files) backup set with nonce=7f84ae6fa938, datestamp=1517635809 (Feb 03 2018 05:30:09)
0101.089 (0) This backup set remains non-empty (f=1/d=0); will retain in history
0101.089 (0) Examining (for files) backup set with nonce=9795779454d4, datestamp=1517549409 (Feb 02 2018 05:30:09)
0101.089 (0) This backup set remains non-empty (f=1/d=0); will retain in history
0101.089 (0) Examining (for files) backup set with nonce=f39adb05877a, datestamp=1517463005 (Feb 01 2018 05:30:05)
0101.089 (0) This backup set remains non-empty (f=1/d=0); will retain in history
0101.089 (0) Examining (for files) backup set with nonce=3bb26cba569f, datestamp=1517376612 (Jan 31 2018 05:30:12)
0101.089 (0) plugins: over retain limit (7); will delete this file entity
0101.089 (0) themes: over retain limit (7); will delete this file entity
0101.089 (0) uploads: over retain limit (7); will delete this file entity
0101.089 (0) others: over retain limit (7); will delete this file entity
0101.089 (0) Delete file: backup_2018-01-31-0030_sparkDEMAND_3bb26cba569f-plugins.zip, service=dropbox
0101.092 (0) Delete file: backup_2018-01-31-0030_sparkDEMAND_3bb26cba569f-themes.zip, service=dropbox
0101.094 (0) Delete file: backup_2018-01-31-0030_sparkDEMAND_3bb26cba569f-uploads.zip, service=dropbox
0101.097 (0) Delete file: backup_2018-01-31-0030_sparkDEMAND_3bb26cba569f-others.zip, service=dropbox
0101.100 (0) Dropbox: request deletion: backup_2018-01-31-0030_sparkDEMAND_3bb26cba569f-plugins.zip
0101.905 (0) Dropbox: delete succeeded
0101.908 (0) Dropbox: request deletion: backup_2018-01-31-0030_sparkDEMAND_3bb26cba569f-themes.zip
0102.523 (0) Dropbox: delete succeeded
0102.527 (0) Dropbox: request deletion: backup_2018-01-31-0030_sparkDEMAND_3bb26cba569f-uploads.zip
0103.117 (0) Dropbox: delete succeeded
0103.120 (0) Dropbox: request deletion: backup_2018-01-31-0030_sparkDEMAND_3bb26cba569f-others.zip
0103.771 (0) Dropbox: delete succeeded
0103.776 (0) This backup set is now empty; will remove from history
0103.779 (0) Deleting log file (log.3bb26cba569f.txt)
0103.781 (0) Examining (for files) backup set with nonce=6af56109a84a, datestamp=1517203807 (Jan 29 2018 05:30:07)
0103.781 (0) This backup set remains non-empty (f=0/d=1); will retain in history
0103.784 (0) Retain: saving new backup history (sets now: 8) and finishing retain operation
0103.791 (0) Resume backup (c67ca600817d, 0): finish run
0103.797 (0) Decremented the semaphore (f) by 1
0103.800 (0) Semaphore (f) unlocked
0103.803 (0) There were no errors in the uploads, so the 'resume' event (1) is being unscheduled
0103.811 (0) Fetching RSS news feed
0103.902 (0) Fetched RSS news feed; result is a: SimplePie
0103.919 (0) Sending email ('Files only (database was not part of this particular schedule) (Full backup)') report (attachments: 0, size: 0 KB) to: admin...
0103.923 (0) PHP event: code E_NOTICE: Undefined index: SERVER_NAME (line 330, wp-includes/pluggable.php)
0103.991 (0) The backup apparently succeeded and is now complete
